…
시도별로 묶은 뒤,  
주민등록인구 수 기준 상위 3개를 뽑아봅니다.

```r
pop_high <- data2 %>% 
  group_by(시도) %>% 
  slice_max(order_by = 주민등록인구수, n = 3)

pop_high
```

    ## # A tibble: 48 × 3
    ## # Groups:   시도 [17]
    ##    시도           시군구     주민등록인구수
    ##    <chr>          <chr>               <dbl>
    ##  1 강원특별자치도 원주시             361503
    ##  2 강원특별자치도 춘천시             286426
    ##  3 강원특별자치도 강릉시             209439
    ##  4 경기도         수원시            1197257
    ##  5 경기도         용인시            1075566
    ##  6 경기도         고양시            1074907
    ##  7 경상남도       통합창원시        1009038
    ##  8 경상남도       김해시             533659
    ##  9 경상남도       양산시             355122
    ## 10 경상북도       포항시             493033
    ## # ℹ 38 more rows
…
## 시도별 주민등록인구 수 하위 3개 시군구 추출하기

이번에는 반대로,  
조금은 조용한(?) 지역들을 살펴봅니다.  
방법은 거의 동일하고, ```slice_max```가 아닌 ```slice_min```을 사용하면 됩니다.

``` r
pop_low <- data2 %>% 
  group_by(시도) %>% 
  slice_min(order_by = 주민등록인구수, n = 3)

pop_low
```

    ## # A tibble: 48 × 3
    ## # Groups:   시도 [17]
    ##    시도           시군구 주민등록인구수
    ##    <chr>          <chr>           <dbl>
    ##  1 강원특별자치도 양구군          21056
    ##  2 강원특별자치도 화천군          23007
    ##  3 강원특별자치도 고성군          27305
    ##  4 경기도         연천군          41584
    ##  5 경기도         가평군          62302
    ##  6 경기도         과천시          81000
    ##  7 경상남도       의령군          25475
    ##  8 경상남도       산청군          33752
    ##  9 경상남도       함양군          36945
    ## 10 경상북도       울릉군           9077
    ## # ℹ 38 more rows
…
