…
data %>% 
  arrange(행정구역별, 시점) %>% 
  group_by(행정구역별) %>% 
  mutate(
    `1년 성장률` = cagr(
      lag(주민등록인구수),
      주민등록인구수,
      lag(시점),
      시점
    ),
    `1년 성장률` = percent(`1년 성장률`, accuracy = 0.01)
  )
```

    ## # A tibble: 507 × 4
    ## # Groups:   행정구역별 [18]
    ##    행정구역별      시점 주민등록인구수 `1년 성장률`
    ##    <chr>          <dbl>          <dbl> <chr>       
    ##  1 강원특별자치도  1995        1528488 <NA>        
    ##  2 강원특별자치도  1996        1528671 0.01%       
    ##  3 강원특별자치도  1997        1537106 0.55%       
    ##  4 강원특별자치도  1998        1552667 1.01%       
    ##  5 강원특별자치도  1999        1556979 0.28%       
    ##  6 강원특별자치도  2000        1554688 -0.15%      
    ##  7 강원특별자치도  2001        1552407 -0.15%      
    ##  8 강원특별자치도  2002        1538720 -0.88%      
    ##  9 강원특별자치도  2003        1527034 -0.76%      
    ## 10 강원특별자치도  2004        1521375 -0.37%      
    ## # ℹ 497 more rows
…
data %>% 
  arrange(행정구역별, 시점) %>% 
  group_by(행정구역별) %>% 
  mutate(
    `5년 성장률` = cagr(
      lag(주민등록인구수, n = 5),
      주민등록인구수,
      lag(시점, n = 5),
      시점
    ),
    `5년 성장률` = percent(`5년 성장률`, accuracy = 0.01)
  )
```

    ## # A tibble: 507 × 4
    ## # Groups:   행정구역별 [18]
    ##    행정구역별      시점 주민등록인구수 `5년 성장률`
    ##    <chr>          <dbl>          <dbl> <chr>       
    ##  1 강원특별자치도  1995        1528488 <NA>        
    ##  2 강원특별자치도  1996        1528671 <NA>        
    ##  3 강원특별자치도  1997        1537106 <NA>        
    ##  4 강원특별자치도  1998        1552667 <NA>        
    ##  5 강원특별자치도  1999        1556979 <NA>        
    ##  6 강원특별자치도  2000        1554688 0.34%       
    ##  7 강원특별자치도  2001        1552407 0.31%       
    ##  8 강원특별자치도  2002        1538720 0.02%       
    ##  9 강원특별자치도  2003        1527034 -0.33%      
    ## 10 강원특별자치도  2004        1521375 -0.46%      
    ## # ℹ 497 more rows
…
