…
`group_by(행정구역별)`을 이용해
행정구역별로 성장률이 계산될 수 있도록 합니다. `cagr` 함수를 사용해 1년
성장률을 계산합니다. 이때, `lag` 함수로 이전 연도의 데이터를 참조합니다.
`percent` 함수로 계산된 성장률을 백분율로 변환합니다.

``` r
library(scales)

data %>% 
  group_by(행정구역별) %>% 
  mutate(`1년 성장률`=cagr(lag(주민등록인구수), 주민등록인구수, lag(시점), 시점)) %>% 
  mutate(`1년 성장률`=percent(`1년 성장률`, accuracy=.01))
```

    ## # A tibble: 507 × 4
    ## # Groups:   행정구역별 [18]
    ##    행정구역별  시점 주민등록인구수 `1년 성장률`
    ##    <chr>      <dbl>          <dbl> <chr>       
    ##  1 전국        1995       45858029 <NA>        
    ##  2 전국        1996       46266256 0.89%       
    ##  3 전국        1997       46684069 0.90%       
    ##  4 전국        1998       46991171 0.66%       
    ##  5 전국        1999       47335678 0.73%       
    ##  6 전국        2000       47732558 0.84%       
    ##  7 전국        2001       48021543 0.61%       
    ##  8 전국        2002       48229948 0.43%       
    ##  9 전국        2003       48386823 0.33%       
    ## 10 전국        2004       48583805 0.41%       
    ## # ℹ 497 more rows
## 5년 연평균성장률 계산

5년 단위로 성장률을 계산하고자 할 경우, `lag` 함수의 `n` 매개변수를
이용해 5년 전 데이터를 참조합니다. 아래 그림과 같이, 1995~2000년 연평균성장률을 2000년 행에 계산합니다.

<img src="{{ site.baseurl }}/assets/images/연평균성장률-계산/5년 연평균성장률 표.jpg" width="50%" style="display: block; margin: auto;" />

``` r
data %>% 
  group_by(행정구역별) %>% 
  mutate(`5년 성장률`=cagr(lag(주민등록인구수, n=5), 주민등록인구수, lag(시점, n=5), 시점)) %>% 
  mutate(`5년 성장률`=percent(`5년 성장률`, accuracy=.01))
```

    ## # A tibble: 507 × 4
    ## # Groups:   행정구역별 [18]
    ##    행정구역별  시점 주민등록인구수 `5년 성장률`
    ##    <chr>      <dbl>          <dbl> <chr>       
    ##  1 전국        1995       45858029 <NA>        
    ##  2 전국        1996       46266256 <NA>        
    ##  3 전국        1997       46684069 <NA>        
    ##  4 전국        1998       46991171 <NA>        
    ##  5 전국        1999       47335678 <NA>        
    ##  6 전국        2000       47732558 0.80%       
    ##  7 전국        2001       48021543 0.75%       
    ##  8 전국        2002       48229948 0.65%       
    ##  9 전국        2003       48386823 0.59%       
    ## 10 전국        2004       48583805 0.52%       
    ## # ℹ 497 more rows
